{
    "page": 1,
    "per_page": 6,
    "total": 12,
    "total_pages": 2,
    "data": [
        {
            "id": 1,
            "email": "george.bluth@reqres.in",
            "first_name": "Georgedf",
            "last_name": "Blutxcxhsdf",
            "avatar": "https://s3.amazonaws.com/uifaces/faces/twitter/calebogden/128.jpg",
            "imageUrl": "https://avatars0.githubusercontent.com/u/7895451?s=460&v=4",
            "tableData": {
                "id": 0,
                "childRows": null,
                "markedForTreeRemove": false,
                "path": [
                    0
                ],
                "isTreeExpanded": false
            }
        },
        {
            "id": 2,
            "email": "janet.weaver@reqres.in",
            "first_name": "Janet",
            "last_name": "Weaver",
            "avatar": "https://s3.amazonaws.com/uifaces/faces/twitter/josephstein/128.jpg",
            "parentId": 1,
            "imageUrl": "https://avatars0.githubusercontent.com/u/7895451?s=460&v=4"
        },
        {
            "id": 4,
            "email": "eve.holt@reqres.in",
            "first_name": "Eve",
            "last_name": "fdgHolt",
            "avatar": "https://s3.amazonaws.com/uifaces/faces/twitter/marcoramires/128.jpg",
            "tableData": {
                "id": 3,
                "childRows": null,
                "markedForTreeRemove": false,
                "path": [
                    3
                ],
                "isTreeExpanded": false
            }
        },
        {
            "id": 5,
            "email": "charles.morris@reqres.in",
            "first_name": "Charles",
            "last_name": "Morris",
            "avatar": "https://s3.amazonaws.com/uifaces/faces/twitter/stephenmoon/128.jpg",
            "parentId": 2
        },
        {
            "id": 6,
            "email": "tracey.ramos@reqres.in",
            "first_name": "Tracey",
            "last_name": "Ramos",
            "avatar": "https://s3.amazonaws.com/uifaces/faces/twitter/bigmancho/128.jpg"
        },
        {
            "id": "7",
            "first_name": "Roger",
            "last_name": "Waters"
        },
        {
            "id": "8",
            "first_name": "New",
            "last_name": "People"
        },
        {
            "id": "9",
            "first_name": "One",
            "last_name": "More"
        },
        {
            "id": "10",
            "first_name": "Hey",
            "last_name": "There"
        }
    ]
}